…
  - **`covid19_us_daily()`**: Counts (`positive`, `negative`, `pos_neg`
    (positive + negative), `hospitalized`, `death`, `total`, `states`)
    by day
    
    ``` r
    covid19_us_daily()
    #> # A tibble: 139 x 25
    #>    date       states positive negative pending hospitalized_cu… hospitalized_cu…
    #>    <date>      <int>    <int>    <int>   <int>            <int>            <int>
    #>  1 2020-06-08     56  1952401 18662902    1606            29969           217581
    #>  2 2020-06-07     56  1936161 18299517    1733            30299           216906
    #>  3 2020-06-06     56  1916229 17872298    1796            30909           216259
    #>  4 2020-06-05     56  1893167 17355207    1749            31335           215252
    #>  5 2020-06-04     56  1864775 16837909    3474            31659           213812
    #>  6 2020-06-03     56  1844235 16398515    3556            32081           216640
    #>  7 2020-06-02     56  1824172 15959787    4054            32728           214382
    #>  8 2020-06-01     56  1800662 15563473    3455            33237           212704
    #>  9 2020-05-31     56  1784578 15175396    3270            33840           210083
    #> 10 2020-05-30     56  1762227 14795413    1668            34650           209134
    #> # … with 129 more rows, and 18 more variables: in_icu_currently <int>,
    #> #   in_icu_cumulative <int>, on_ventilator_currently <int>,
    #> #   on_ventilator_cumulative <int>, recovered <int>, date_checked <dttm>,
    #> #   death <int>, hospitalized <int>, last_modified <dttm>, total <int>,
    #> #   total_test_results <int>, pos_neg <int>, death_increase <int>,
    #> #   hospitalized_increase <int>, negative_increase <int>,
    #> #   positive_increase <int>, total_test_results_increase <int>, hash <chr>
    ```

### States

  - **`covid19_states()`**: Counts (`positive`, `negative`,
    `hospitalized`, `death`, `pending`, `total`) and grades
    (`positive_score`, `negative_score`, `grade`, `score`) by state
    
    ``` r
    covid19_states()
    #> # A tibble: 56 x 35
    #>    date       state positive negative pending hospitalized_cu… hospitalized_cu…
    #>    <date>     <chr>    <int>    <int>   <int>            <int>            <int>
    #>  1 2020-06-08 AK         563    65349      NA                7               NA
    #>  2 2020-06-08 AL       20925   239066      NA               NA             2054
    #>  3 2020-06-08 AR        9740   150847      NA              171              844
    #>  4 2020-06-08 AS           0      174      NA               NA               NA
    #>  5 2020-06-08 AZ       27678   260403      NA             1266             3377
    #>  6 2020-06-08 CA      131319  2299871      NA             4506               NA
    #>  7 2020-06-08 CO       28001   189483      NA              322             4485
    #>  8 2020-06-08 CT       44092   263979      NA              324             9669
    #>  9 2020-06-08 DC        9389    46377      NA              268               NA
    #> 10 2020-06-08 DE        9972    59975      NA              113               NA
    #> # … with 46 more rows, and 28 more variables: in_icu_currently <int>,
    #> #   in_icu_cumulative <int>, on_ventilator_currently <int>,
    #> #   on_ventilator_cumulative <int>, recovered <int>, data_quality_grade <chr>,
    #> #   last_update_et <chr>, date_modified <dttm>, check_time_et <chr>,
    #> #   death <int>, hospitalized <int>, date_checked <dttm>, fips <chr>,
    #> #   positive_increase <int>, negative_increase <int>, total <int>,
    #> #   total_test_results <int>, total_test_results_increase <int>, pos_neg <int>,
    #> #   death_increase <int>, hospitalized_increase <int>, hash <chr>,
    #> #   commercial_score <int>, negative_regular_score <int>, negative_score <int>,
    #> #   positive_score <int>, score <int>, grade <chr>
    ```

  - **`covid19_states_daily()`**: Counts (`positive`, `negative`,
    `pos_neg` (positive + negative), `hospitalized`, `death`, `total`)
    by day
    
    ``` r
    covid19_states_daily()
    #> # A tibble: 5,337 x 35
    #>    date       state positive negative pending hospitalized_cu… hospitalized_cu…
    #>    <date>     <chr>    <int>    <int>   <int>            <int>            <int>
    #>  1 2020-06-08 AK         563    65349      NA                7               NA
    #>  2 2020-06-08 AL       20925   239066      NA               NA             2054
    #>  3 2020-06-08 AR        9740   150847      NA              171              844
    #>  4 2020-06-08 AS           0      174      NA               NA               NA
    #>  5 2020-06-08 AZ       27678   260403      NA             1266             3377
    #>  6 2020-06-08 CA      131319  2299871      NA             4506               NA
    #>  7 2020-06-08 CO       28001   189483      NA              322             4485
    #>  8 2020-06-08 CT       44092   263979      NA              324             9669
    #>  9 2020-06-08 DC        9389    46377      NA              268               NA
    #> 10 2020-06-08 DE        9972    59975      NA              113               NA
    #> # … with 5,327 more rows, and 28 more variables: in_icu_currently <int>,
    #> #   in_icu_cumulative <int>, on_ventilator_currently <int>,
    #> #   on_ventilator_cumulative <int>, recovered <int>, data_quality_grade <chr>,
    #> #   last_update_et <chr>, date_modified <chr>, check_time_et <chr>,
    #> #   death <int>, hospitalized <int>, date_checked <chr>, fips <chr>,
    #> #   positive_increase <int>, negative_increase <int>, total <int>,
    #> #   total_test_results <int>, total_test_results_increase <int>, pos_neg <int>,
    #> #   death_increase <int>, hospitalized_increase <int>, hash <chr>,
    #> #   commercial_score <int>, negative_regular_score <int>, negative_score <int>,
    #> #   positive_score <int>, score <int>, grade <chr>
    ```

  - **`covid19_states_info()`**: State government links, Twitter
    accounts, notes, etc.
    
    ``` r
    covid19_states_info()
    #> # A tibble: 56 x 11
    #>    state notes covid19site covid19site_sec… covid19site_ter… twitter
    #>    <chr> <chr> <chr>       <chr>            <chr>            <chr>  
    #>  1 AK    "Tot… http://dhs… "http://dhss.al… ""               "@Alas…
    #>  2 AL    "Neg… https://al… "https://dph1.a… ""               "@alpu…
    #>  3 AR     <NA> https://ww… "https://adem.m… ""               "@adhp…
    #>  4 AS    "Our… https://ww… "https://www.fa… ""               ""     
    #>  5 AZ    "Das… https://ww… "https://www.az… ""               "@azdh…
    #>  6 CA    "Cal… https://ww… "https://www.cd… ""               "@CAPu…
    #>  7 CO    "Neg… https://co… "https://covid1… "https://covid1… "@cdph…
    #>  8 CT    "Neg… https://da… ""               ""               "@ctdp…
    #>  9 DC    "Pos… https://co… ""               ""               "@_DCH…
    #> 10 DE    "As … https://dh… ""               ""               "@Dela…
    #> # … with 46 more rows, and 5 more variables: covid19site_old <chr>, name <chr>,
    #> #   fips <chr>, pui <chr>, pum <lgl>
    ```
…
